{
  "$schema": "http://json-schema.org/draft-06/schema#",
  "type": "object",
  "properties": {
    "type": {
      "type": "string"
    },
    "repo": {
      "type": "string"
    },
    "url": {
      "type": "string"
    },
    "auth-key": {
      "type": "string"
    },
    "public-key-fingerprint": {
      "type": "string"
    }
  },
  "required": [
    "type",
    "repo",
    "url",
    "auth-key"
  ],
  "additionalProperties": false
}
